﻿# standard costs
@maa_buy_cost = 150
@maa_low_maintenance_cost = 1.0
@maa_high_maintenance_cost = 5.0

marsh_slingers {
	type = skirmishers
	
	damage = 25
	toughness = 12
	pursuit = 15
	screen = 10
	
	terrain_bonus = {
		hills = { damage = 4 toughness = 4 }
		forest = { toughness = 4 screen = 4 }
		wetlands = { toughness = 6 screen = 6 }
		farmlands = { toughness = 4 screen = 4 }
	}

	counters = {
		archers = 1
	}

	buy_cost = { gold = skirmisher_recruitment_cost }
	low_maintenance_cost = { gold = skirmisher_low_maint_cost }
	high_maintenance_cost = { gold = skirmisher_high_maint_cost }
	
	mercenary_fallback = yes
	holy_order_fallback = yes
	
	stack = 100
	ai_quality = { value = culture_ai_weight_skirmishers }
	icon = slingers
}

camel_rider = {
	type = light_cavalry
	
	damage = 22
	toughness = 15
	pursuit = 20
	screen = 20
	
	terrain_bonus = {
		desert = { damage = 20 toughness = 8 }
		drylands = { damage = 15 toughness = 8 }
		oasis = { damage = 15 }
		floodplains = { damage = 5 }
		hills = { damage = -10 }
		desert_mountains = { damage = -10 pursuit = -10 }
		mountains = { damage = -15 pursuit = -20 }
		wetlands = { damage = -15 toughness = -10 pursuit = -20 screen = -20 }
	}
	
	counters = {
		archers = 1
	}

	winter_bonus = {
		normal_winter = { damage = -3 }
		harsh_winter = { damage = -5 toughness = -2 }
	}
	
	buy_cost = { gold = camel_rider_recruitment_cost }
	low_maintenance_cost = { gold = camel_rider_low_maint_cost }
	high_maintenance_cost = { gold = camel_rider_high_maint_cost }
	
	stack = 100
	ai_quality = { value = culture_ai_weight_camels }
	icon = camel_riders
	fallback_in_hired_troops_if_unlocked = yes
}

war_elephant = {
	type = heavy_cavalry
	
	damage = 250
	toughness = 50
	pursuit = 0
	screen = 0
	
	siege_value = 0.1
	
	terrain_bonus = {
		jungle = { damage = 50 }
		mountains = { damage = -100 }
		desert_mountains = { damage = -100 }
		wetlands = { damage = -150 toughness = -20 }
	}
	
	counters = {
		skirmishers = 2
		heavy_infantry = 2
	}

	winter_bonus = {
		normal_winter = { damage = -20 toughness = -5 }
		harsh_winter = { damage = -40 toughness = -10 }
	}

	buy_cost = { gold = war_elephant_recruitment_cost }
	low_maintenance_cost = { gold = war_elephant_low_maint_cost }
	high_maintenance_cost = { gold = war_elephant_high_maint_cost }
	
	stack = 25
	hired_stack_size = 10
	ai_quality = { value = culture_ai_weight_elephants }
	icon = war_elephants
}
