version="1.0"
tags={
	"Alternative History"
	"Balance"
	"Bookmarks"
	"Character Focuses"
	"Character Interactions"
	"Culture"
	"Decisions"
	"Events"
	"Gameplay"
	"Graphics"
	"Fixes"
	"Historical"
	"Map"
	"Portraits"
	"Religion"
	"Schemes"
	"Sound"
	"Total Conversion"
	"Translation"
	"Utilities"
	"Warfare"
}
name="Mesoamerican Kings"
supported_version="1.4.*"