﻿object={
	name="reeds_01_generator_1_0"
	clamp_to_water_level=no
	render_under_water=no
	generated_content=yes
	layer="grass_layer"
	pdxmesh="reeds_06_grass_mesh"
	count=61
	transform="3348.998535 0.000000 6476.931152 0.000000 0.773360 0.000000 -0.633967 1.037715 1.037715 1.037715
3351.170898 0.000000 6476.013184 0.000000 0.921443 0.000000 -0.388514 1.022912 1.022912 1.022912
3358.040283 0.000000 6472.712402 0.000000 0.196533 0.000000 -0.980497 1.078837 1.078837 1.078837
3357.536621 0.000000 6514.306152 0.000000 0.999669 0.000000 0.025725 0.999807 0.999807 0.999807
3356.140381 0.000000 6518.278320 0.000000 0.999644 0.000000 0.026698 0.998467 0.998467 0.998467
3359.859863 0.000000 6525.727051 0.000000 0.054388 0.000000 0.998520 0.867500 0.867500 0.867500
3358.532471 0.000000 6519.741699 0.000000 0.781724 0.000000 -0.623624 1.042027 1.042027 1.042027
3355.386230 0.000000 6523.446777 0.000000 0.661461 0.000000 0.749979 0.968243 0.968243 0.968243
3357.997070 0.000000 6524.302734 0.000000 0.299014 0.000000 0.954249 0.917750 0.917750 0.917750
3359.332764 0.000000 6522.827637 0.000000 0.990543 0.000000 -0.137205 1.012370 1.012370 1.012370
3325.317383 0.000000 6623.360352 0.000000 0.569050 0.000000 -0.822303 1.031334 1.031334 1.031334
3312.027832 0.000000 6619.371582 0.000000 0.964721 0.000000 0.263274 0.995344 0.995344 0.995344
3318.041016 0.000000 6622.438965 0.000000 0.959247 0.000000 0.282570 0.970677 0.970677 0.970677
3346.768066 0.000000 6578.018066 0.000000 0.078171 0.000000 -0.996940 1.167679 1.167679 1.167679
3313.642822 0.000000 6614.944336 0.000000 0.963740 0.000000 -0.266844 1.027649 1.027649 1.027649
3351.771729 0.000000 6568.907227 0.000000 0.914064 0.000000 0.405571 0.990617 0.990617 0.990617
3352.295410 0.000000 6573.150391 0.000000 0.951815 0.000000 0.306673 0.995331 0.995331 0.995331
3321.919922 0.000000 6620.943848 0.000000 0.004546 0.000000 0.999990 0.843591 0.843591 0.843591
3356.140381 0.000000 6590.278320 0.000000 0.678315 0.000000 0.734772 0.987637 0.987637 0.987637
3349.947998 0.000000 6580.251465 0.000000 0.994065 0.000000 -0.108789 1.010885 1.010885 1.010885
3328.524658 0.000000 6618.861328 0.000000 0.774663 0.000000 -0.632374 1.022219 1.022219 1.022219
3314.521484 0.000000 6621.970215 0.000000 0.917329 0.000000 0.398130 0.991822 0.991822 0.991822
3346.665527 0.000000 6574.898926 0.000000 0.756516 0.000000 0.653975 0.889664 0.889664 0.889664
3352.338623 0.000000 6582.387207 0.000000 0.165010 0.000000 0.986292 0.891261 0.891261 0.891261
3327.213135 0.000000 6616.468262 0.000000 0.036432 0.000000 0.999336 0.835284 0.835284 0.835284
3322.080811 0.000000 6617.939453 0.000000 0.952578 0.000000 0.304294 0.983018 0.983018 0.983018
3319.346436 0.000000 6613.393555 0.000000 0.901430 0.000000 0.432925 0.942993 0.942993 0.942993
3350.533447 0.000000 6571.162598 0.000000 0.766596 0.000000 -0.642130 1.047001 1.047001 1.047001
3354.164062 0.000000 6588.722168 0.000000 0.916493 0.000000 0.400052 0.981505 0.981505 0.981505
3319.335205 0.000000 6610.628418 0.000000 0.461928 0.000000 -0.886917 1.070793 1.070793 1.070793
3313.737793 0.000000 6617.536133 0.000000 0.668008 0.000000 0.744154 0.947618 0.947618 0.947618
3345.365479 0.000000 6571.871582 0.000000 0.029807 0.000000 -0.999556 1.076943 1.076943 1.076943
3328.792969 0.000000 6613.711914 0.000000 0.953730 0.000000 0.300665 0.981702 0.981702 0.981702
3315.537109 0.000000 6616.197754 0.000000 0.857259 0.000000 -0.514885 1.078318 1.078318 1.078318
3317.727539 0.000000 6616.704590 0.000000 0.791087 0.000000 -0.611704 1.108455 1.108455 1.108455
3352.027832 0.000000 6584.572266 0.000000 0.762122 0.000000 -0.647433 1.050985 1.050985 1.050985
3325.135498 0.000000 6615.757812 0.000000 0.176228 0.000000 0.984349 0.794721 0.794721 0.794721
3323.112061 0.000000 6622.756348 0.000000 0.748435 0.000000 0.663209 0.956554 0.956554 0.956554
3345.324951 0.000000 6576.602051 0.000000 0.569179 0.000000 -0.822214 1.106035 1.106035 1.106035
3347.907959 0.000000 6576.356934 0.000000 0.181780 0.000000 -0.983339 1.200982 1.200982 1.200982
3351.619629 0.000000 6579.077637 0.000000 0.992061 0.000000 -0.125756 1.016054 1.016054 1.016054
3321.104736 0.000000 6619.395996 0.000000 0.446108 0.000000 0.894979 0.914219 0.914219 0.914219
3315.276123 0.000000 6614.407227 0.000000 0.901941 0.000000 0.431859 0.916387 0.916387 0.916387
3350.778320 0.000000 6582.648926 0.000000 0.904002 0.000000 0.427529 0.962502 0.962502 0.962502
3317.832031 0.000000 6618.369141 0.000000 0.545564 0.000000 0.838069 0.873474 0.873474 0.873474
3344.798828 0.000000 6575.168457 0.000000 0.340375 0.000000 -0.940290 1.134397 1.134397 1.134397
3316.354248 0.000000 6613.448242 0.000000 0.841079 0.000000 0.540912 0.914390 0.914390 0.914390
3320.751709 0.000000 6613.138672 0.000000 0.305501 0.000000 0.952192 0.836383 0.836383 0.836383
3346.685303 0.000000 6576.804688 0.000000 0.842275 0.000000 0.539048 0.917565 0.917565 0.917565
3316.497070 0.000000 6617.063477 0.000000 0.909241 0.000000 0.416270 0.929257 0.929257 0.929257
3361.795410 0.000000 6477.874512 0.000000 0.667356 0.000000 -0.744739 1.048241 1.048241 1.048241
3364.857910 0.000000 6478.362793 0.000000 0.572325 0.000000 -0.820027 1.055207 1.055207 1.055207
3363.405518 0.000000 6475.995605 0.000000 0.966625 0.000000 -0.256196 1.010349 1.010349 1.010349
3366.821045 0.000000 6481.021973 0.000000 0.984602 0.000000 0.174814 0.992981 0.992981 0.992981
3368.498291 0.000000 6529.598145 0.000000 0.552646 0.000000 0.833416 0.943426 0.943426 0.943426
3364.224365 0.000000 6482.567383 0.000000 0.869090 0.000000 -0.494653 1.019377 1.019377 1.019377
3366.022461 0.000000 6528.973145 0.000000 0.666879 0.000000 0.745166 0.951722 0.951722 0.951722
3366.327148 0.000000 6523.986328 0.000000 0.547610 0.000000 0.836734 0.943079 0.943079 0.943079
3361.423096 0.000000 6523.713379 0.000000 0.300847 0.000000 0.953672 0.902081 0.902081 0.902081
3370.831543 0.000000 6525.725098 0.000000 0.344844 0.000000 -0.938660 1.069980 1.069980 1.069980
3363.109375 0.000000 6526.043945 0.000000 0.551839 0.000000 -0.833951 1.061554 1.061554 1.061554
"}
object={
	name="reeds_01_generator_1_1"
	clamp_to_water_level=no
	render_under_water=no
	generated_content=yes
	layer="grass_layer"
	pdxmesh="reeds_07_grass_mesh"
	count=42
	transform="3357.389893 0.000000 6475.804688 0.000000 0.563666 0.000000 0.826003 0.944188 0.944188 0.944188
3358.947266 0.000000 6480.081543 0.000000 0.066153 0.000000 0.997809 0.928630 0.928630 0.928630
3359.080322 0.000000 6516.917480 0.000000 0.059203 0.000000 0.998246 0.954716 0.954716 0.954716
3359.006348 0.000000 6527.600098 0.000000 0.293913 0.000000 -0.955832 1.082597 1.082597 1.082597
3319.870605 0.000000 6616.138184 0.000000 0.970459 0.000000 0.241264 0.971408 0.971408 0.971408
3311.011963 0.000000 6610.571289 0.000000 0.917565 0.000000 0.397586 0.998979 0.998979 0.998979
3357.536621 0.000000 6586.306152 0.000000 0.005839 0.000000 -0.999983 1.089861 1.089861 1.089861
3321.520508 0.000000 6611.924805 0.000000 0.962403 0.000000 0.271626 0.977337 0.977337 0.977337
3316.265625 0.000000 6618.296875 0.000000 0.673139 0.000000 -0.739516 1.105978 1.105978 1.105978
3349.591553 0.000000 6575.460938 0.000000 0.159142 0.000000 -0.987256 1.169083 1.169083 1.169083
3323.144287 0.000000 6615.025391 0.000000 0.277878 0.000000 -0.960617 1.157710 1.157710 1.157710
3317.090088 0.000000 6614.645508 0.000000 0.077048 0.000000 0.997027 0.705407 0.705407 0.705407
3348.646729 0.000000 6568.337891 0.000000 0.849667 0.000000 0.527320 0.973653 0.973653 0.973653
3325.619873 0.000000 6620.671387 0.000000 0.999994 0.000000 -0.003463 1.000251 1.000251 1.000251
3317.071289 0.000000 6620.419434 0.000000 0.741304 0.000000 -0.671169 1.062455 1.062455 1.062455
3349.866211 0.000000 6573.252930 0.000000 0.698849 0.000000 0.715270 0.890562 0.890562 0.890562
3314.319336 0.000000 6619.761719 0.000000 0.036711 0.000000 -0.999326 1.118727 1.118727 1.118727
3321.147705 0.000000 6614.433594 0.000000 0.993066 0.000000 0.117558 0.987645 0.987645 0.987645
3329.827637 0.000000 6617.330566 0.000000 0.161245 0.000000 -0.986914 1.080897 1.080897 1.080897
3353.737305 0.000000 6583.553711 0.000000 0.445191 0.000000 -0.895436 1.085860 1.085860 1.085860
3348.307373 0.000000 6574.206543 0.000000 0.839120 0.000000 -0.543946 1.068921 1.068921 1.068921
3328.659668 0.000000 6615.605957 0.000000 0.987899 0.000000 -0.155097 1.014773 1.014773 1.014773
3325.722168 0.000000 6612.385254 0.000000 0.755309 0.000000 -0.655369 1.096347 1.096347 1.096347
3353.712891 0.000000 6581.413086 0.000000 0.994160 0.000000 0.107917 0.987043 0.987043 0.987043
3346.726807 0.000000 6571.169434 0.000000 0.698010 0.000000 0.716088 0.916307 0.916307 0.916307
3319.952637 0.000000 6612.022949 0.000000 0.026355 0.000000 -0.999653 1.196644 1.196644 1.196644
3318.420166 0.000000 6620.318359 0.000000 0.968849 0.000000 0.247653 0.967511 0.967511 0.967511
3319.853271 0.000000 6614.526367 0.000000 0.530301 0.000000 -0.847810 1.141462 1.141462 1.141462
3316.136475 0.000000 6615.002441 0.000000 0.675469 0.000000 -0.737388 1.163540 1.163540 1.163540
3362.982178 0.000000 6471.954102 0.000000 0.855056 0.000000 0.518535 0.997278 0.997278 0.997278
3361.272705 0.000000 6474.761230 0.000000 0.840714 0.000000 -0.541479 1.032856 1.032856 1.032856
3360.195068 0.000000 6470.800293 0.000000 0.689906 0.000000 0.723899 0.977771 0.977771 0.977771
3368.711182 0.000000 6525.763184 0.000000 0.546134 0.000000 -0.837698 1.047105 1.047105 1.047105
3361.188477 0.000000 6483.147949 0.000000 0.987965 0.000000 -0.154680 1.003102 1.003102 1.003102
3360.104980 0.000000 6521.794922 0.000000 0.984373 0.000000 -0.176095 1.011048 1.011048 1.011048
3363.659180 0.000000 6524.103027 0.000000 0.335549 0.000000 0.942023 0.898780 0.898780 0.898780
3371.858398 0.000000 6523.931641 0.000000 0.299264 0.000000 -0.954170 1.041117 1.041117 1.041117
3360.082520 0.000000 6529.806641 0.000000 0.055636 0.000000 0.998451 0.954609 0.954609 0.954609
3368.358154 0.000000 6522.373047 0.000000 0.457395 0.000000 0.889264 0.937082 0.937082 0.937082
3365.747070 0.000000 6526.392090 0.000000 0.970727 0.000000 0.240186 0.986072 0.986072 0.986072
3372.908203 0.000000 6526.035645 0.000000 0.200885 0.000000 0.979615 0.935084 0.935084 0.935084
3364.089844 0.000000 6522.094727 0.000000 0.745796 0.000000 -0.666174 1.047324 1.047324 1.047324
"}
object={
	name="reeds_01_generator_1_2"
	clamp_to_water_level=no
	render_under_water=no
	generated_content=yes
	layer="grass_layer"
	pdxmesh="reeds_01_tall_grass_mesh"
	count=87
	transform="3350.283203 0.000000 6473.783691 0.000000 0.091944 0.000000 -0.995764 1.084909 1.084909 1.084909
3359.952881 0.000000 6477.808594 0.000000 0.887722 0.000000 -0.460380 1.027471 1.027471 1.027471
3355.976807 0.000000 6473.877930 0.000000 0.985319 0.000000 -0.170722 1.009851 1.009851 1.009851
3352.473389 0.000000 6477.943359 0.000000 0.620159 0.000000 -0.784476 1.051785 1.051785 1.051785
3359.799561 0.000000 6471.393066 0.000000 0.270243 0.000000 0.962792 0.948186 0.948186 0.948186
3353.477539 0.000000 6471.297363 0.000000 0.935970 0.000000 0.352080 0.982035 0.982035 0.982035
3356.125488 0.000000 6477.717773 0.000000 0.704413 0.000000 -0.709790 1.045316 1.045316 1.045316
3359.336914 0.000000 6474.622070 0.000000 0.102742 0.000000 0.994708 0.919378 0.919378 0.919378
3349.749512 0.000000 6479.844238 0.000000 0.697171 0.000000 0.716905 0.966074 0.966074 0.966074
3353.285156 0.000000 6475.008789 0.000000 0.405598 0.000000 -0.914051 1.066215 1.066215 1.066215
3356.470459 0.000000 6471.002930 0.000000 0.973792 0.000000 -0.227440 1.010884 1.010884 1.010884
3355.172363 0.000000 6475.840332 0.000000 0.085391 0.000000 0.996348 0.914713 0.914713 0.914713
3356.937988 0.000000 6479.649414 0.000000 0.131740 0.000000 -0.991284 1.082609 1.082609 1.082609
3352.641602 0.000000 6473.109375 0.000000 0.001715 0.000000 -0.999999 1.090098 1.090098 1.090098
3357.402832 0.000000 6522.151367 0.000000 0.479192 0.000000 0.877710 0.922455 0.922455 0.922455
3354.813965 0.000000 6480.020996 0.000000 0.112982 0.000000 0.993597 0.919944 0.919944 0.919944
3357.220459 0.000000 6528.651367 0.000000 0.999213 0.000000 0.039673 0.999207 0.999207 0.999207
3354.105957 0.000000 6483.584961 0.000000 0.488805 0.000000 -0.872393 1.023819 1.023819 1.023819
3356.166992 0.000000 6525.688477 0.000000 0.622407 0.000000 -0.782694 1.058353 1.058353 1.058353
3352.351074 0.000000 6481.022949 0.000000 0.995164 0.000000 -0.098229 1.004667 1.004667 1.004667
3349.936768 0.000000 6584.052734 0.000000 0.222064 0.000000 -0.975032 1.006725 1.006725 1.006725
3348.094971 0.000000 6571.948730 0.000000 0.817572 0.000000 0.575826 0.935660 0.935660 0.935660
3330.382812 0.000000 6615.508789 0.000000 0.786135 0.000000 -0.618055 1.016634 1.016634 1.016634
3352.744141 0.000000 6577.467285 0.000000 0.521164 0.000000 0.853457 0.954047 0.954047 0.954047
3316.973145 0.000000 6611.388184 0.000000 0.526868 0.000000 0.849947 0.944203 0.944203 0.944203
3324.820312 0.000000 6618.061523 0.000000 0.612304 0.000000 -0.790622 1.072845 1.072845 1.072845
3355.245605 0.000000 6581.770020 0.000000 0.511477 0.000000 -0.859297 1.056786 1.056786 1.056786
3343.955811 0.000000 6573.858887 0.000000 0.369607 0.000000 -0.929188 1.032740 1.032740 1.032740
3326.307861 0.000000 6613.837891 0.000000 0.948333 0.000000 0.317278 0.961311 0.961311 0.961311
3353.504395 0.000000 6586.253906 0.000000 0.998528 0.000000 -0.054238 1.002710 1.002710 1.002710
3320.269287 0.000000 6608.342285 0.000000 0.868064 0.000000 0.496453 0.987030 0.987030 0.987030
3355.960449 0.000000 6578.494141 0.000000 0.980778 0.000000 0.195129 0.990684 0.990684 0.990684
3319.232910 0.000000 6619.174805 0.000000 0.254532 0.000000 -0.967064 1.170511 1.170511 1.170511
3314.028076 0.000000 6610.472656 0.000000 0.835984 0.000000 -0.548754 1.034804 1.034804 1.034804
3347.265869 0.000000 6581.655273 0.000000 0.696638 0.000000 0.717423 0.964045 0.964045 0.964045
3355.552979 0.000000 6584.321289 0.000000 0.526628 0.000000 -0.850096 1.091329 1.091329 1.091329
3324.114502 0.000000 6612.218750 0.000000 0.149761 0.000000 -0.988722 1.191499 1.191499 1.191499
3353.272705 0.000000 6579.926270 0.000000 0.984021 0.000000 -0.178051 1.017876 1.017876 1.017876
3343.348145 0.000000 6576.352051 0.000000 0.608330 0.000000 0.793684 0.963377 0.963377 0.963377
3315.009033 0.000000 6612.804688 0.000000 0.723098 0.000000 0.690745 0.889587 0.889587 0.889587
3320.454102 0.000000 6622.914551 0.000000 0.977236 0.000000 0.212154 0.979719 0.979719 0.979719
3350.375488 0.000000 6577.664551 0.000000 0.600795 0.000000 0.799403 0.935248 0.935248 0.935248
3312.743652 0.000000 6612.478027 0.000000 0.397522 0.000000 0.917593 0.907170 0.907170 0.907170
3323.624268 0.000000 6619.774414 0.000000 0.605010 0.000000 0.796218 0.937917 0.937917 0.937917
3347.937256 0.000000 6579.684570 0.000000 0.997922 0.000000 -0.064431 1.007244 1.007244 1.007244
3319.544434 0.000000 6621.111328 0.000000 0.618334 0.000000 0.785916 0.882619 0.882619 0.882619
3355.441650 0.000000 6586.341797 0.000000 0.145480 0.000000 0.989361 0.893288 0.893288 0.893288
3326.625977 0.000000 6618.810547 0.000000 0.140879 0.000000 0.990027 0.900077 0.900077 0.900077
3348.591553 0.000000 6578.021484 0.000000 0.867839 0.000000 -0.496846 1.059713 1.059713 1.059713
3346.688232 0.000000 6573.056152 0.000000 0.807100 0.000000 0.590415 0.899088 0.899088 0.899088
3322.641357 0.000000 6613.319824 0.000000 0.408573 0.000000 0.912726 0.839235 0.839235 0.839235
3324.596924 0.000000 6614.082031 0.000000 0.392075 0.000000 0.919933 0.827971 0.827971 0.827971
3317.694092 0.000000 6612.965820 0.000000 0.709514 0.000000 -0.704691 1.117136 1.117136 1.117136
3351.721680 0.000000 6580.765625 0.000000 0.262448 0.000000 -0.964946 1.175964 1.175964 1.175964
3318.638916 0.000000 6615.007812 0.000000 0.235371 0.000000 0.971906 0.813610 0.813610 0.813610
3349.038330 0.000000 6570.700195 0.000000 0.402955 0.000000 0.915220 0.878782 0.878782 0.878782
3327.481934 0.000000 6612.918457 0.000000 0.615872 0.000000 0.787846 0.891274 0.891274 0.891274
3327.258301 0.000000 6614.951660 0.000000 0.882124 0.000000 0.471017 0.925311 0.925311 0.925311
3325.867432 0.000000 6617.008301 0.000000 0.641628 0.000000 -0.767016 1.093844 1.093844 1.093844
3319.040527 0.000000 6617.322754 0.000000 0.820334 0.000000 -0.571885 1.071435 1.071435 1.071435
3349.666992 0.000000 6578.918945 0.000000 0.985830 0.000000 -0.167745 1.019356 1.019356 1.019356
3349.199951 0.000000 6576.789062 0.000000 0.998410 0.000000 0.056378 0.992959 0.992959 0.992959
3349.382568 0.000000 6572.075684 0.000000 0.973676 0.000000 -0.227936 1.031575 1.031575 1.031575
3350.267090 0.000000 6581.470215 0.000000 0.267357 0.000000 -0.963598 1.175277 1.175277 1.175277
3316.759766 0.000000 6615.848633 0.000000 0.522844 0.000000 0.852429 0.798707 0.798707 0.798707
3314.336182 0.000000 6615.958008 0.000000 0.385779 0.000000 0.922591 0.780040 0.780040 0.780040
3326.073242 0.000000 6615.002441 0.000000 0.373537 0.000000 -0.927615 1.180916 1.180916 1.180916
3317.731201 0.000000 6615.512207 0.000000 0.998822 0.000000 0.048526 0.990426 0.990426 0.990426
3324.870605 0.000000 6624.136230 0.000000 0.999600 0.000000 0.028290 0.999717 0.999717 0.999717
3318.121094 0.000000 6624.865723 0.000000 0.705968 0.000000 0.708244 0.964634 0.964634 0.964634
3321.208496 0.000000 6624.027344 0.000000 0.968774 0.000000 0.247945 0.988740 0.988740 0.988740
3368.212891 0.000000 6479.800293 0.000000 0.882383 0.000000 -0.470532 1.006115 1.006115 1.006115
3360.907959 0.000000 6472.725586 0.000000 0.803147 0.000000 -0.595781 1.035055 1.035055 1.035055
3369.487549 0.000000 6533.166504 0.000000 0.975392 0.000000 -0.220479 1.002220 1.002220 1.002220
3375.293701 0.000000 6525.303223 0.000000 0.872260 0.000000 0.489043 0.994897 0.994897 0.994897
3370.988037 0.000000 6520.206543 0.000000 0.712685 0.000000 0.701485 0.986413 0.986413 0.986413
3363.232910 0.000000 6528.170410 0.000000 0.148195 0.000000 0.988958 0.943196 0.943196 0.943196
3365.395264 0.000000 6520.506348 0.000000 0.939465 0.000000 -0.342645 1.011351 1.011351 1.011351
3365.539551 0.000000 6531.682129 0.000000 0.802704 0.000000 0.596377 0.976071 0.976071 0.976071
3362.862061 0.000000 6480.048340 0.000000 0.741589 0.000000 0.670854 0.957775 0.957775 0.957775
3371.359131 0.000000 6527.795410 0.000000 0.978682 0.000000 -0.205379 1.011878 1.011878 1.011878
3361.042969 0.000000 6525.950195 0.000000 0.887226 0.000000 0.461335 0.960496 0.960496 0.960496
3362.665039 0.000000 6520.364258 0.000000 0.997888 0.000000 -0.064955 1.002921 1.002921 1.002921
3360.290527 0.000000 6480.593750 0.000000 0.978643 0.000000 0.205565 0.989145 0.989145 0.989145
3364.811035 0.000000 6480.642090 0.000000 0.999049 0.000000 0.043594 0.997496 0.997496 0.997496
3369.474365 0.000000 6523.968262 0.000000 0.623257 0.000000 -0.782017 1.051558 1.051558 1.051558
3361.804199 0.000000 6522.039062 0.000000 0.520415 0.000000 0.853913 0.920791 0.920791 0.920791
"}
