﻿game_object_locator={
	name="siege"
	clamp_to_water_level=no
	render_under_water=no
	generated_content=no
	layer="unit_layer"
	instances={
		{
			id=0
			position={ 3.000000 0.000000 0.000000 }
			rotation={ -0.000000 -0.000025 -0.000000 1.000000 }
			scale={ 1.000000 1.000000 1.000000 }
		}
		{
			id=1
			position={ 3312.000000 0.000000 6528.000000 }
			rotation={ 0.000000 0.864910 0.000000 0.501927 }
			scale={ 1.000000 1.000000 1.000000 }
		}
		{
			id=5
			position={ 3296.222900 0.000000 6538.607422 }
			rotation={ -0.000000 -0.219682 -0.000000 -0.975572 }
			scale={ 1.000000 1.000000 1.000000 }
		}
		{
			id=6
			position={ 3294.415527 0.000000 6555.194824 }
			rotation={ -0.000000 0.608654 -0.000000 0.793436 }
			scale={ 1.000000 1.000000 1.000000 }
		}
		{
			id=7
			position={ 3362.000000 0.000000 6480.000000 }
			rotation={ -0.000000 -0.661803 -0.000000 0.749678 }
			scale={ 1.000000 1.000000 1.000000 }
		}
		{
			id=8
			position={ 3372.576172 0.000000 6571.326660 }
			rotation={ -0.000000 0.181300 -0.000000 -0.983428 }
			scale={ 1.000000 1.000000 1.000000 }
		}
		{
			id=9
			position={ 3377.000000 0.000000 6405.000000 }
			rotation={ 0.000000 0.889168 0.000000 -0.457582 }
			scale={ 1.000000 1.000000 1.000000 }
		}
		{
			id=10
			position={ 3333.000000 0.000000 6475.000000 }
			rotation={ 0.000000 0.992508 0.000000 0.122183 }
			scale={ 1.000000 1.000000 1.000000 }
		}
		{
			id=11
			position={ 3341.335449 0.000000 6511.006836 }
			rotation={ -0.000000 -0.559924 -0.000000 0.828544 }
			scale={ 1.000000 1.000000 1.000000 }
		}
		{
			id=12
			position={ 3389.000000 0.000000 6548.000000 }
			rotation={ 0.000000 0.998068 0.000000 -0.062138 }
			scale={ 1.000000 1.000000 1.000000 }
		}
		{
			id=13
			position={ 3365.000000 0.000000 6581.000000 }
			rotation={ -0.000000 -0.615412 -0.000000 0.788205 }
			scale={ 1.000000 1.000000 1.000000 }
		}
		{
			id=14
			position={ 3297.000000 0.000000 6633.000000 }
			rotation={ 0.000000 0.889168 0.000000 0.457582 }
			scale={ 1.000000 1.000000 1.000000 }
		}
		{
			id=15
			position={ 3284.000000 0.000000 6678.000000 }
			rotation={ 0.000000 0.850651 0.000000 -0.525731 }
			scale={ 1.000000 1.000000 1.000000 }
		}
		{
			id=16
			position={ 3268.000000 0.000000 6585.000000 }
			rotation={ 0.000000 0.745128 0.000000 -0.666921 }
			scale={ 1.000000 1.000000 1.000000 }
		}
		{
			id=17
			position={ 3317.270996 0.000000 6459.081543 }
			rotation={ -0.000000 -0.988298 -0.000000 -0.152538 }
			scale={ 1.000000 1.000000 1.000000 }
		}
		{
			id=18
			position={ 3309.000000 0.000000 6396.000000 }
			rotation={ 0.000000 0.707107 0.000000 -0.707107 }
			scale={ 1.000000 1.000000 1.000000 }
		}
		{
			id=19
			position={ 3273.000000 0.000000 6393.000000 }
			rotation={ 0.000000 0.889168 0.000000 0.457582 }
			scale={ 1.000000 1.000000 1.000000 }
		}
		{
			id=20
			position={ 3264.000000 0.000000 6421.000000 }
			rotation={ -0.000000 -0.615412 -0.000000 0.788205 }
			scale={ 1.000000 1.000000 1.000000 }
		}
		{
			id=21
			position={ 3227.000000 0.000000 6398.000000 }
			rotation={ 0.000000 0.966500 0.000000 0.256668 }
			scale={ 1.000000 1.000000 1.000000 }
		}
		{
			id=22
			position={ 3231.000000 0.000000 6483.000000 }
			rotation={ 0.000000 0.788205 0.000000 -0.615412 }
			scale={ 1.000000 1.000000 1.000000 }
		}
		{
			id=23
			position={ 3236.000000 0.000000 6570.000000 }
			rotation={ 0.000000 0.864910 0.000000 0.501927 }
			scale={ 1.000000 1.000000 1.000000 }
		}
		{
			id=24
			position={ 3357.077148 0.000000 6510.530762 }
			rotation={ -0.000000 -0.555237 -0.000000 0.831692 }
			scale={ 1.000000 1.000000 1.000000 }
		}
		{
			id=25
			position={ 3399.000000 0.000000 6533.000000 }
			rotation={ 0.000000 0.745128 0.000000 -0.666921 }
			scale={ 1.000000 1.000000 1.000000 }
		}
		{
			id=26
			position={ 3311.000000 0.000000 6484.000000 }
			rotation={ -0.000000 -0.666921 -0.000000 0.745128 }
			scale={ 1.000000 1.000000 1.000000 }
		}
		{
			id=27
			position={ 3304.011230 0.000000 6502.564453 }
			rotation={ 0.000000 0.788205 0.000000 0.615412 }
			scale={ 1.000000 1.000000 1.000000 }
		}
		{
			id=28
			position={ 3280.152588 0.000000 6504.206055 }
			rotation={ 0.000000 0.952296 0.000000 0.305177 }
			scale={ 1.000000 1.000000 1.000000 }
		}
		{
			id=29
			position={ 3284.000000 0.000000 6522.000000 }
			rotation={ 0.000000 0.992508 0.000000 0.122183 }
			scale={ 1.000000 1.000000 1.000000 }
		}
		{
			id=30
			position={ 3309.000000 0.000000 6559.000000 }
			rotation={ 0.000000 0.821926 0.000000 -0.569595 }
			scale={ 1.000000 1.000000 1.000000 }
		}
		{
			id=31
			position={ 3326.003906 0.000000 6562.541992 }
			rotation={ -0.000000 -0.000025 -0.000000 1.000000 }
			scale={ 1.000000 1.000000 1.000000 }
		}
		{
			id=32
			position={ 3331.000000 0.000000 6558.000000 }
			rotation={ 0.000000 0.788205 0.000000 -0.615412 }
			scale={ 1.000000 1.000000 1.000000 }
		}
		{
			id=33
			position={ 3348.000000 0.000000 6608.000000 }
			rotation={ 0.000000 0.850651 0.000000 -0.525731 }
			scale={ 1.000000 1.000000 1.000000 }
		}
		{
			id=34
			position={ 3364.000000 0.000000 6594.000000 }
			rotation={ 0.000000 0.661803 0.000000 0.749678 }
			scale={ 1.000000 1.000000 1.000000 }
		}
		{
			id=35
			position={ 3324.436035 0.000000 6628.851562 }
			rotation={ -0.000000 -0.000025 -0.000000 1.000000 }
			scale={ 1.000000 1.000000 1.000000 }
		}
		{
			id=36
			position={ 3340.000000 0.000000 6455.000000 }
			rotation={ 0.000000 0.998068 0.000000 0.062137 }
			scale={ 1.000000 1.000000 1.000000 }
		}
		{
			id=37
			position={ 3346.000000 0.000000 6449.000000 }
			rotation={ 0.000000 0.749678 0.000000 0.661803 }
			scale={ 1.000000 1.000000 1.000000 }
		}
		{
			id=38
			position={ 3361.000000 0.000000 6422.000000 }
			rotation={ 0.000000 0.864910 0.000000 -0.501927 }
			scale={ 1.000000 1.000000 1.000000 }
		}
		{
			id=39
			position={ 3338.000000 0.000000 6427.000000 }
			rotation={ 0.000000 0.966500 0.000000 0.256668 }
			scale={ 1.000000 1.000000 1.000000 }
		}
		{
			id=40
			position={ 3327.000000 0.000000 6402.000000 }
			rotation={ 0.000000 0.749678 0.000000 0.661803 }
			scale={ 1.000000 1.000000 1.000000 }
		}
		{
			id=41
			position={ 3359.000000 0.000000 6403.000000 }
			rotation={ 0.000000 0.788205 0.000000 -0.615412 }
			scale={ 1.000000 1.000000 1.000000 }
		}
		{
			id=42
			position={ 3263.000000 0.000000 6389.000000 }
			rotation={ 0.000000 0.788205 0.000000 -0.615412 }
			scale={ 1.000000 1.000000 1.000000 }
		}
		{
			id=43
			position={ 3229.000000 0.000000 6426.000000 }
			rotation={ 0.000000 0.788205 0.000000 -0.615412 }
			scale={ 1.000000 1.000000 1.000000 }
		}
		{
			id=44
			position={ 3238.000000 0.000000 6452.000000 }
			rotation={ 0.000000 0.625727 0.000000 0.780042 }
			scale={ 1.000000 1.000000 1.000000 }
		}
		{
			id=45
			position={ 3214.000000 0.000000 6478.000000 }
			rotation={ 0.000000 0.780042 0.000000 -0.625727 }
			scale={ 1.000000 1.000000 1.000000 }
		}
		{
			id=46
			position={ 3247.000000 0.000000 6459.000000 }
			rotation={ 0.000000 0.983954 0.000000 -0.178425 }
			scale={ 1.000000 1.000000 1.000000 }
		}
		{
			id=47
			position={ 3218.000000 0.000000 6499.000000 }
			rotation={ 0.000000 0.788205 0.000000 -0.615412 }
			scale={ 1.000000 1.000000 1.000000 }
		}
		{
			id=48
			position={ 3235.937256 0.000000 6487.297363 }
			rotation={ -0.000000 0.994508 -0.000000 0.104656 }
			scale={ 1.000000 1.000000 1.000000 }
		}
		{
			id=49
			position={ 3255.000000 0.000000 6475.000000 }
			rotation={ 0.000000 0.998068 0.000000 -0.062138 }
			scale={ 1.000000 1.000000 1.000000 }
		}
		{
			id=50
			position={ 3249.000000 0.000000 6494.000000 }
			rotation={ 0.000000 0.998068 0.000000 0.062137 }
			scale={ 1.000000 1.000000 1.000000 }
		}
		{
			id=51
			position={ 3274.000000 0.000000 6548.000000 }
			rotation={ -0.000000 -0.666921 -0.000000 0.745128 }
			scale={ 1.000000 1.000000 1.000000 }
		}
		{
			id=52
			position={ 3239.000000 0.000000 6544.000000 }
			rotation={ 0.000000 0.864910 0.000000 0.501927 }
			scale={ 1.000000 1.000000 1.000000 }
		}
		{
			id=53
			position={ 3272.000000 0.000000 6523.000000 }
			rotation={ 0.000000 0.983954 0.000000 -0.178425 }
			scale={ 1.000000 1.000000 1.000000 }
		}
		{
			id=54
			position={ 3242.765137 0.000000 6511.194336 }
			rotation={ -0.000000 -0.501625 -0.000000 0.865085 }
			scale={ 1.000000 1.000000 1.000000 }
		}
		{
			id=55
			position={ 3242.000000 0.000000 6517.000000 }
			rotation={ 0.000000 0.788205 0.000000 -0.615412 }
			scale={ 1.000000 1.000000 1.000000 }
		}
		{
			id=56
			position={ 3218.000000 0.000000 6519.000000 }
			rotation={ 0.000000 0.966500 0.000000 0.256668 }
			scale={ 1.000000 1.000000 1.000000 }
		}
		{
			id=57
			position={ 3196.000000 0.000000 6557.000000 }
			rotation={ 0.000000 0.615412 0.000000 0.788205 }
			scale={ 1.000000 1.000000 1.000000 }
		}
		{
			id=58
			position={ 3273.243652 0.000000 6562.748535 }
			rotation={ -0.000000 0.401665 -0.000000 0.915787 }
			scale={ 1.000000 1.000000 1.000000 }
		}
		{
			id=59
			position={ 3275.710693 0.000000 6575.735840 }
			rotation={ -0.000000 0.596115 -0.000000 -0.802899 }
			scale={ 1.000000 1.000000 1.000000 }
		}
		{
			id=60
			position={ 3283.641113 0.000000 6586.306152 }
			rotation={ 0.000000 0.661803 0.000000 0.749678 }
			scale={ 1.000000 1.000000 1.000000 }
		}
		{
			id=61
			position={ 3206.000000 0.000000 6541.000000 }
			rotation={ 0.000000 0.745128 0.000000 0.666921 }
			scale={ 1.000000 1.000000 1.000000 }
		}
		{
			id=62
			position={ 3192.395996 0.000000 6577.104980 }
			rotation={ -0.000000 -0.000025 -0.000000 1.000000 }
			scale={ 1.000000 1.000000 1.000000 }
		}
		{
			id=63
			position={ 3301.550537 0.000000 6584.169434 }
			rotation={ 0.000000 0.966500 0.000000 -0.256668 }
			scale={ 1.000000 1.000000 1.000000 }
		}
		{
			id=64
			position={ 3291.823730 0.000000 6604.260254 }
			rotation={ -0.000000 -0.763203 -0.000000 0.646159 }
			scale={ 1.000000 1.000000 1.000000 }
		}
		{
			id=65
			position={ 3253.000000 0.000000 6604.000000 }
			rotation={ 0.000000 0.874642 0.000000 0.484769 }
			scale={ 1.000000 1.000000 1.000000 }
		}
		{
			id=66
			position={ 3295.000000 0.000000 6621.000000 }
			rotation={ 0.000000 0.749678 0.000000 -0.661803 }
			scale={ 1.000000 1.000000 1.000000 }
		}
		{
			id=67
			position={ 187.000000 0.000000 1024.000000 }
			rotation={ -0.000000 -0.000025 -0.000000 1.000000 }
			scale={ 1.000000 1.000000 1.000000 }
		}
		{
			id=68
			position={ 78.000000 0.000000 7529.000000 }
			rotation={ -0.000000 -0.000025 -0.000000 1.000000 }
			scale={ 1.000000 1.000000 1.000000 }
		}
		{
			id=69
			position={ 160.000000 0.000000 8600.000000 }
			rotation={ -0.000000 -0.000025 -0.000000 1.000000 }
			scale={ 1.000000 1.000000 1.000000 }
		}
		{
			id=70
			position={ 381.000000 0.000000 7026.000000 }
			rotation={ -0.000000 -0.000025 -0.000000 1.000000 }
			scale={ 1.000000 1.000000 1.000000 }
		}
		{
			id=71
			position={ 114.000000 0.000000 63.000000 }
			rotation={ -0.000000 -0.000025 -0.000000 1.000000 }
			scale={ 1.000000 1.000000 1.000000 }
		}
		{
			id=72
			position={ 3331.000000 0.000000 6593.000000 }
			rotation={ -0.000000 -0.000000 -0.000000 1.000000 }
			scale={ 1.000000 1.000000 1.000000 }
		}
		{
			id=73
			position={ 3358.000000 0.000000 6489.000000 }
			rotation={ 0.000000 0.992508 0.000000 0.122183 }
			scale={ 1.000000 1.000000 1.000000 }
		}
		{
			id=74
			position={ 3371.385986 0.000000 6538.151367 }
			rotation={ -0.000000 0.222147 -0.000000 -0.975014 }
			scale={ 1.000000 1.000000 1.000000 }
		}
		{
			id=75
			position={ 3439.849854 0.000000 6507.726074 }
			rotation={ 0.000000 1.000000 0.000000 -0.000000 }
			scale={ 1.000000 1.000000 1.000000 }
		}
		{
			id=76
			position={ 3359.000000 0.000000 6543.000000 }
			rotation={ 0.000000 0.973249 0.000000 -0.229753 }
			scale={ 1.000000 1.000000 1.000000 }
		}
		{
			id=77
			position={ 3307.000000 0.000000 6597.000000 }
			rotation={ 0.000000 0.966500 0.000000 0.256668 }
			scale={ 1.000000 1.000000 1.000000 }
		}
		{
			id=78
			position={ 3182.000000 0.000000 6477.000000 }
			rotation={ 0.000000 0.788205 0.000000 0.615412 }
			scale={ 1.000000 1.000000 1.000000 }
		}
		{
			id=79
			position={ 3176.000000 0.000000 6468.000000 }
			rotation={ 0.000000 0.923880 0.000000 -0.382684 }
			scale={ 1.000000 1.000000 1.000000 }
		}
		{
			id=80
			position={ 1000.000000 0.000000 691.000000 }
			rotation={ -0.000000 -0.000025 -0.000000 1.000000 }
			scale={ 1.000000 1.000000 1.000000 }
		}
		{
			id=81
			position={ 532.000000 0.000000 5093.000000 }
			rotation={ -0.000000 -0.000025 -0.000000 1.000000 }
			scale={ 1.000000 1.000000 1.000000 }
		}
		{
			id=82
			position={ 3212.000000 0.000000 6447.000000 }
			rotation={ 0.000000 0.966500 0.000000 -0.256668 }
			scale={ 1.000000 1.000000 1.000000 }
		}
		{
			id=83
			position={ 528.000000 0.000000 2663.000000 }
			rotation={ -0.000000 -0.000025 -0.000000 1.000000 }
			scale={ 1.000000 1.000000 1.000000 }
		}
		{
			id=84
			position={ 3185.000000 0.000000 6441.000000 }
			rotation={ 0.000000 0.889168 0.000000 0.457582 }
			scale={ 1.000000 1.000000 1.000000 }
		}
		{
			id=85
			position={ 125.000000 0.000000 1929.000000 }
			rotation={ -0.000000 -0.000025 -0.000000 1.000000 }
			scale={ 1.000000 1.000000 1.000000 }
		}
		{
			id=86
			position={ 3220.000000 0.000000 6435.000000 }
			rotation={ -0.000000 -0.615412 -0.000000 0.788205 }
			scale={ 1.000000 1.000000 1.000000 }
		}
		{
			id=87
			position={ 3197.000000 0.000000 6420.000000 }
			rotation={ 0.000000 0.850651 0.000000 -0.525731 }
			scale={ 1.000000 1.000000 1.000000 }
		}
		{
			id=88
			position={ 3301.000000 0.000000 6380.000000 }
			rotation={ 0.000000 0.908513 0.000000 0.417857 }
			scale={ 1.000000 1.000000 1.000000 }
		}
		{
			id=89
			position={ 3192.000000 0.000000 6399.000000 }
			rotation={ 0.000000 0.889168 0.000000 -0.457582 }
			scale={ 1.000000 1.000000 1.000000 }
		}
		{
			id=90
			position={ 160.000000 0.000000 8089.000000 }
			rotation={ -0.000000 -0.000025 -0.000000 1.000000 }
			scale={ 1.000000 1.000000 1.000000 }
		}
		{
			id=91
			position={ 3563.000000 0.000000 6523.000000 }
			rotation={ 0.000000 0.889168 0.000000 -0.457582 }
			scale={ 1.000000 1.000000 1.000000 }
		}
		{
			id=92
			position={ 3220.000000 0.000000 6408.000000 }
			rotation={ -0.000000 -0.666921 -0.000000 0.745128 }
			scale={ 1.000000 1.000000 1.000000 }
		}
		{
			id=93
			position={ 3218.000000 0.000000 6390.000000 }
			rotation={ 0.000000 0.749678 0.000000 -0.661803 }
			scale={ 1.000000 1.000000 1.000000 }
		}
		{
			id=94
			position={ 484.000000 0.000000 7600.000000 }
			rotation={ -0.000000 -0.000025 -0.000000 1.000000 }
			scale={ 1.000000 1.000000 1.000000 }
		}
		{
			id=95
			position={ 3243.000000 0.000000 6381.000000 }
			rotation={ 0.000000 0.749678 0.000000 -0.661803 }
			scale={ 1.000000 1.000000 1.000000 }
		}
		{
			id=96
			position={ 649.000000 0.000000 7560.000000 }
			rotation={ -0.000000 -0.000025 -0.000000 1.000000 }
			scale={ 1.000000 1.000000 1.000000 }
		}
		{
			id=97
			position={ 3092.000000 0.000000 6752.000000 }
			rotation={ 0.000000 0.707107 0.000000 -0.707107 }
			scale={ 1.000000 1.000000 1.000000 }
		}
		{
			id=98
			position={ 3073.000000 0.000000 6717.000000 }
			rotation={ -0.000000 -0.661803 -0.000000 0.749678 }
			scale={ 1.000000 1.000000 1.000000 }
		}
		{
			id=99
			position={ 3052.000000 0.000000 6704.000000 }
			rotation={ 0.000000 0.998068 0.000000 -0.062138 }
			scale={ 1.000000 1.000000 1.000000 }
		}
		{
			id=100
			position={ 3050.000000 0.000000 6682.000000 }
			rotation={ 0.000000 0.864910 0.000000 0.501927 }
			scale={ 1.000000 1.000000 1.000000 }
		}
		{
			id=101
			position={ 3058.000000 0.000000 6649.000000 }
			rotation={ 0.000000 0.615412 0.000000 0.788205 }
			scale={ 1.000000 1.000000 1.000000 }
		}
		{
			id=102
			position={ 3070.000000 0.000000 6629.000000 }
			rotation={ 0.000000 0.707107 0.000000 -0.707107 }
			scale={ 1.000000 1.000000 1.000000 }
		}
		{
			id=103
			position={ 3095.000000 0.000000 6718.000000 }
			rotation={ -0.000000 -0.661803 -0.000000 0.749678 }
			scale={ 1.000000 1.000000 1.000000 }
		}
		{
			id=104
			position={ 3073.000000 0.000000 6692.000000 }
			rotation={ 0.000000 0.952296 0.000000 0.305177 }
			scale={ 1.000000 1.000000 1.000000 }
		}
		{
			id=105
			position={ 3083.000000 0.000000 6682.000000 }
			rotation={ 0.000000 0.625727 0.000000 0.780042 }
			scale={ 1.000000 1.000000 1.000000 }
		}
		{
			id=106
			position={ 3079.000000 0.000000 6663.000000 }
			rotation={ 0.000000 0.615412 0.000000 0.788205 }
			scale={ 1.000000 1.000000 1.000000 }
		}
		{
			id=107
			position={ 3085.000000 0.000000 6636.000000 }
			rotation={ 0.000000 0.966500 0.000000 -0.256668 }
			scale={ 1.000000 1.000000 1.000000 }
		}
		{
			id=108
			position={ 3103.000000 0.000000 6635.000000 }
			rotation={ -0.000000 -0.661803 -0.000000 0.749678 }
			scale={ 1.000000 1.000000 1.000000 }
		}
		{
			id=109
			position={ 3108.000000 0.000000 6615.000000 }
			rotation={ -0.000000 -0.661803 -0.000000 0.749678 }
			scale={ 1.000000 1.000000 1.000000 }
		}
		{
			id=110
			position={ 3117.000000 0.000000 6626.000000 }
			rotation={ -0.000000 -0.615412 -0.000000 0.788205 }
			scale={ 1.000000 1.000000 1.000000 }
		}
		{
			id=111
			position={ 3117.000000 0.000000 6599.000000 }
			rotation={ 0.000000 0.864910 0.000000 -0.501927 }
			scale={ 1.000000 1.000000 1.000000 }
		}
		{
			id=112
			position={ 425.000000 0.000000 8082.000000 }
			rotation={ -0.000000 -0.000025 -0.000000 1.000000 }
			scale={ 1.000000 1.000000 1.000000 }
		}
		{
			id=113
			position={ 3112.000000 0.000000 6752.000000 }
			rotation={ 0.000000 0.864910 0.000000 0.501927 }
			scale={ 1.000000 1.000000 1.000000 }
		}
		{
			id=114
			position={ 3122.000000 0.000000 6730.000000 }
			rotation={ -0.000000 -0.615412 -0.000000 0.788205 }
			scale={ 1.000000 1.000000 1.000000 }
		}
		{
			id=115
			position={ 3094.000000 0.000000 6707.000000 }
			rotation={ 0.000000 0.707107 0.000000 0.707107 }
			scale={ 1.000000 1.000000 1.000000 }
		}
		{
			id=116
			position={ 3117.000000 0.000000 6682.000000 }
			rotation={ -0.000000 -0.625727 -0.000000 0.780042 }
			scale={ 1.000000 1.000000 1.000000 }
		}
		{
			id=117
			position={ 3118.000000 0.000000 6657.000000 }
			rotation={ -0.000000 -0.615412 -0.000000 0.788205 }
			scale={ 1.000000 1.000000 1.000000 }
		}
		{
			id=118
			position={ 1338.000000 0.000000 3926.000000 }
			rotation={ -0.000000 -0.000025 -0.000000 1.000000 }
			scale={ 1.000000 1.000000 1.000000 }
		}
		{
			id=119
			position={ 3141.000000 0.000000 6635.000000 }
			rotation={ 0.000000 0.821926 0.000000 -0.569595 }
			scale={ 1.000000 1.000000 1.000000 }
		}
		{
			id=120
			position={ 3136.000000 0.000000 6653.000000 }
			rotation={ 0.000000 0.745128 0.000000 0.666921 }
			scale={ 1.000000 1.000000 1.000000 }
		}
		{
			id=121
			position={ 3125.000000 0.000000 6679.000000 }
			rotation={ 0.000000 0.811242 0.000000 0.584710 }
			scale={ 1.000000 1.000000 1.000000 }
		}
		{
			id=122
			position={ 3140.000000 0.000000 6701.000000 }
			rotation={ 0.000000 0.850651 0.000000 -0.525731 }
			scale={ 1.000000 1.000000 1.000000 }
		}
		{
			id=123
			position={ 3127.000000 0.000000 6719.000000 }
			rotation={ 0.000000 0.864910 0.000000 0.501927 }
			scale={ 1.000000 1.000000 1.000000 }
		}
		{
			id=124
			position={ 3135.000000 0.000000 6742.000000 }
			rotation={ 0.000000 0.994029 0.000000 -0.109117 }
			scale={ 1.000000 1.000000 1.000000 }
		}
		{
			id=125
			position={ 3143.000000 0.000000 6753.000000 }
			rotation={ 0.000000 0.615412 0.000000 0.788205 }
			scale={ 1.000000 1.000000 1.000000 }
		}
		{
			id=126
			position={ 3150.000000 0.000000 6716.000000 }
			rotation={ 0.000000 0.889168 0.000000 0.457582 }
			scale={ 1.000000 1.000000 1.000000 }
		}
		{
			id=127
			position={ 3160.000000 0.000000 6700.000000 }
			rotation={ 0.000000 0.908513 0.000000 0.417857 }
			scale={ 1.000000 1.000000 1.000000 }
		}
		{
			id=128
			position={ 3156.000000 0.000000 6678.000000 }
			rotation={ 0.000000 0.745128 0.000000 0.666921 }
			scale={ 1.000000 1.000000 1.000000 }
		}
		{
			id=129
			position={ 3163.000000 0.000000 6649.000000 }
			rotation={ 0.000000 0.983954 0.000000 -0.178425 }
			scale={ 1.000000 1.000000 1.000000 }
		}
		{
			id=130
			position={ 1053.000000 0.000000 6347.000000 }
			rotation={ -0.000000 -0.000025 -0.000000 1.000000 }
			scale={ 1.000000 1.000000 1.000000 }
		}
		{
			id=131
			position={ 3159.000000 0.000000 6620.000000 }
			rotation={ 0.000000 0.952295 0.000000 -0.305177 }
			scale={ 1.000000 1.000000 1.000000 }
		}
		{
			id=132
			position={ 3131.000000 0.000000 6601.000000 }
			rotation={ 0.000000 0.811242 0.000000 0.584710 }
			scale={ 1.000000 1.000000 1.000000 }
		}
		{
			id=133
			position={ 3153.000000 0.000000 6592.000000 }
			rotation={ 0.000000 0.952296 0.000000 0.305177 }
			scale={ 1.000000 1.000000 1.000000 }
		}
		{
			id=134
			position={ 3135.000000 0.000000 6580.000000 }
			rotation={ 0.000000 0.749678 0.000000 0.661803 }
			scale={ 1.000000 1.000000 1.000000 }
		}
		{
			id=135
			position={ 3155.000000 0.000000 6575.000000 }
			rotation={ 0.000000 0.937885 0.000000 0.346946 }
			scale={ 1.000000 1.000000 1.000000 }
		}
		{
			id=136
			position={ 1472.000000 0.000000 5196.000000 }
			rotation={ -0.000000 -0.000025 -0.000000 1.000000 }
			scale={ 1.000000 1.000000 1.000000 }
		}
		{
			id=137
			position={ 3183.000000 0.000000 6562.000000 }
			rotation={ 0.000000 0.788205 0.000000 -0.615412 }
			scale={ 1.000000 1.000000 1.000000 }
		}
		{
			id=138
			position={ 3157.000000 0.000000 6546.000000 }
			rotation={ 0.000000 0.821926 0.000000 0.569595 }
			scale={ 1.000000 1.000000 1.000000 }
		}
		{
			id=139
			position={ 3140.000000 0.000000 6540.000000 }
			rotation={ 0.000000 0.966500 0.000000 -0.256668 }
			scale={ 1.000000 1.000000 1.000000 }
		}
		{
			id=140
			position={ 3177.000000 0.000000 6543.000000 }
			rotation={ 0.000000 0.966500 0.000000 0.256668 }
			scale={ 1.000000 1.000000 1.000000 }
		}
		{
			id=141
			position={ 3162.000000 0.000000 6521.000000 }
			rotation={ 0.000000 0.707107 0.000000 -0.707107 }
			scale={ 1.000000 1.000000 1.000000 }
		}
		{
			id=142
			position={ 3139.000000 0.000000 6520.000000 }
			rotation={ 0.000000 0.994029 0.000000 -0.109117 }
			scale={ 1.000000 1.000000 1.000000 }
		}
		{
			id=143
			position={ 3146.000000 0.000000 6489.000000 }
			rotation={ 0.000000 0.937885 0.000000 -0.346946 }
			scale={ 1.000000 1.000000 1.000000 }
		}
		{
			id=144
			position={ 3168.000000 0.000000 6505.000000 }
			rotation={ -0.000000 -0.661803 -0.000000 0.749678 }
			scale={ 1.000000 1.000000 1.000000 }
		}
		{
			id=145
			position={ 3180.000000 0.000000 6506.000000 }
			rotation={ 0.000000 0.821926 0.000000 0.569595 }
			scale={ 1.000000 1.000000 1.000000 }
		}
		{
			id=146
			position={ 3190.000000 0.000000 6537.000000 }
			rotation={ -0.000000 -0.615412 -0.000000 0.788205 }
			scale={ 1.000000 1.000000 1.000000 }
		}
		{
			id=147
			position={ 3197.000000 0.000000 6512.000000 }
			rotation={ 0.000000 0.961249 0.000000 0.275682 }
			scale={ 1.000000 1.000000 1.000000 }
		}
		{
			id=148
			position={ 3254.000000 0.000000 6377.000000 }
			rotation={ 0.000000 0.661803 0.000000 0.749678 }
			scale={ 1.000000 1.000000 1.000000 }
		}
		{
			id=149
			position={ 3262.000000 0.000000 6352.000000 }
			rotation={ 0.000000 0.998068 0.000000 0.062137 }
			scale={ 1.000000 1.000000 1.000000 }
		}
		{
			id=150
			position={ 3286.000000 0.000000 6365.000000 }
			rotation={ 0.000000 0.966500 0.000000 0.256668 }
			scale={ 1.000000 1.000000 1.000000 }
		}
		{
			id=151
			position={ 3289.000000 0.000000 6350.000000 }
			rotation={ 0.000000 0.749678 0.000000 -0.661803 }
			scale={ 1.000000 1.000000 1.000000 }
		}
		{
			id=152
			position={ 3293.000000 0.000000 6326.000000 }
			rotation={ 0.000000 0.707107 0.000000 0.707107 }
			scale={ 1.000000 1.000000 1.000000 }
		}
		{
			id=153
			position={ 3305.000000 0.000000 6353.000000 }
			rotation={ 0.000000 0.788205 0.000000 0.615412 }
			scale={ 1.000000 1.000000 1.000000 }
		}
		{
			id=154
			position={ 3322.000000 0.000000 6329.000000 }
			rotation={ -0.000000 -0.666921 -0.000000 0.745128 }
			scale={ 1.000000 1.000000 1.000000 }
		}
		{
			id=155
			position={ 3333.000000 0.000000 6370.000000 }
			rotation={ 0.000000 0.983954 0.000000 0.178425 }
			scale={ 1.000000 1.000000 1.000000 }
		}
		{
			id=156
			position={ 3343.000000 0.000000 6345.000000 }
			rotation={ 0.000000 0.749678 0.000000 -0.661803 }
			scale={ 1.000000 1.000000 1.000000 }
		}
		{
			id=157
			position={ 3363.000000 0.000000 6379.000000 }
			rotation={ 0.000000 0.745128 0.000000 -0.666921 }
			scale={ 1.000000 1.000000 1.000000 }
		}
		{
			id=158
			position={ 3385.000000 0.000000 6374.000000 }
			rotation={ 0.000000 0.864910 0.000000 -0.501927 }
			scale={ 1.000000 1.000000 1.000000 }
		}
		{
			id=159
			position={ 3354.000000 0.000000 6344.000000 }
			rotation={ 0.000000 0.625727 0.000000 0.780042 }
			scale={ 1.000000 1.000000 1.000000 }
		}
		{
			id=160
			position={ 3387.000000 0.000000 6353.000000 }
			rotation={ -0.000000 -0.661803 -0.000000 0.749678 }
			scale={ 1.000000 1.000000 1.000000 }
		}
		{
			id=161
			position={ 3378.000000 0.000000 6328.000000 }
			rotation={ 0.000000 0.952295 0.000000 -0.305177 }
			scale={ 1.000000 1.000000 1.000000 }
		}
		{
			id=162
			position={ 3398.000000 0.000000 6317.000000 }
			rotation={ 0.000000 0.788205 0.000000 -0.615412 }
			scale={ 1.000000 1.000000 1.000000 }
		}
		{
			id=163
			position={ 3406.000000 0.000000 6352.000000 }
			rotation={ 0.000000 0.966500 0.000000 0.256668 }
			scale={ 1.000000 1.000000 1.000000 }
		}
		{
			id=164
			position={ 3422.000000 0.000000 6327.000000 }
			rotation={ 0.000000 0.952296 0.000000 0.305177 }
			scale={ 1.000000 1.000000 1.000000 }
		}
		{
			id=165
			position={ 1523.000000 0.000000 6920.000000 }
			rotation={ -0.000000 -0.000025 -0.000000 1.000000 }
			scale={ 1.000000 1.000000 1.000000 }
		}
		{
			id=166
			position={ 3445.000000 0.000000 6351.000000 }
			rotation={ 0.000000 0.987087 0.000000 0.160182 }
			scale={ 1.000000 1.000000 1.000000 }
		}
		{
			id=167
			position={ 3433.000000 0.000000 6359.000000 }
			rotation={ 0.000000 0.961249 0.000000 -0.275683 }
			scale={ 1.000000 1.000000 1.000000 }
		}
		{
			id=168
			position={ 3409.000000 0.000000 6377.000000 }
			rotation={ 0.000000 0.780042 0.000000 0.625727 }
			scale={ 1.000000 1.000000 1.000000 }
		}
		{
			id=169
			position={ 2022.000000 0.000000 370.000000 }
			rotation={ -0.000000 -0.000025 -0.000000 1.000000 }
			scale={ 1.000000 1.000000 1.000000 }
		}
		{
			id=170
			position={ 1636.000000 0.000000 6794.000000 }
			rotation={ -0.000000 -0.000025 -0.000000 1.000000 }
			scale={ 1.000000 1.000000 1.000000 }
		}
		{
			id=171
			position={ 3458.000000 0.000000 6375.000000 }
			rotation={ 0.000000 0.749678 0.000000 0.661803 }
			scale={ 1.000000 1.000000 1.000000 }
		}
		{
			id=172
			position={ 3438.000000 0.000000 6382.000000 }
			rotation={ 0.000000 0.821926 0.000000 -0.569595 }
			scale={ 1.000000 1.000000 1.000000 }
		}
		{
			id=173
			position={ 3411.000000 0.000000 6397.000000 }
			rotation={ 0.000000 0.889168 0.000000 0.457582 }
			scale={ 1.000000 1.000000 1.000000 }
		}
		{
			id=174
			position={ 3411.000000 0.000000 6424.000000 }
			rotation={ 0.000000 0.983954 0.000000 0.178425 }
			scale={ 1.000000 1.000000 1.000000 }
		}
		{
			id=175
			position={ 3428.000000 0.000000 6424.000000 }
			rotation={ 0.000000 0.998068 0.000000 0.062137 }
			scale={ 1.000000 1.000000 1.000000 }
		}
		{
			id=176
			position={ 3427.000000 0.000000 6410.000000 }
			rotation={ 0.000000 0.745128 0.000000 0.666921 }
			scale={ 1.000000 1.000000 1.000000 }
		}
		{
			id=177
			position={ 3444.000000 0.000000 6421.000000 }
			rotation={ 0.000000 0.615412 0.000000 0.788205 }
			scale={ 1.000000 1.000000 1.000000 }
		}
		{
			id=178
			position={ 3467.000000 0.000000 6414.000000 }
			rotation={ -0.000000 -0.615412 -0.000000 0.788205 }
			scale={ 1.000000 1.000000 1.000000 }
		}
		{
			id=179
			position={ 3466.000000 0.000000 6383.000000 }
			rotation={ 0.000000 0.961249 0.000000 -0.275683 }
			scale={ 1.000000 1.000000 1.000000 }
		}
		{
			id=180
			position={ 3470.000000 0.000000 6401.000000 }
			rotation={ 0.000000 0.780042 0.000000 0.625727 }
			scale={ 1.000000 1.000000 1.000000 }
		}
		{
			id=181
			position={ 3488.000000 0.000000 6390.000000 }
			rotation={ -0.000000 -0.661803 -0.000000 0.749678 }
			scale={ 1.000000 1.000000 1.000000 }
		}
		{
			id=182
			position={ 1252.000000 0.000000 7500.000000 }
			rotation={ -0.000000 -0.000025 -0.000000 1.000000 }
			scale={ 1.000000 1.000000 1.000000 }
		}
		{
			id=183
			position={ 943.000000 0.000000 3531.000000 }
			rotation={ -0.000000 -0.000025 -0.000000 1.000000 }
			scale={ 1.000000 1.000000 1.000000 }
		}
		{
			id=184
			position={ 3082.000000 0.000000 5234.000000 }
			rotation={ -0.000000 -0.000025 -0.000000 1.000000 }
			scale={ 1.000000 1.000000 1.000000 }
		}
		{
			id=185
			position={ 3410.000000 0.000000 6444.000000 }
			rotation={ 0.000000 0.973249 0.000000 0.229753 }
			scale={ 1.000000 1.000000 1.000000 }
		}
		{
			id=186
			position={ 3430.000000 0.000000 6448.000000 }
			rotation={ 0.000000 0.749678 0.000000 0.661803 }
			scale={ 1.000000 1.000000 1.000000 }
		}
		{
			id=187
			position={ 3443.000000 0.000000 6438.000000 }
			rotation={ 0.000000 0.923880 0.000000 0.382683 }
			scale={ 1.000000 1.000000 1.000000 }
		}
		{
			id=188
			position={ 3452.000000 0.000000 6460.000000 }
			rotation={ 0.000000 0.864910 0.000000 -0.501927 }
			scale={ 1.000000 1.000000 1.000000 }
		}
		{
			id=189
			position={ 3415.000000 0.000000 6477.000000 }
			rotation={ 0.000000 0.966500 0.000000 -0.256668 }
			scale={ 1.000000 1.000000 1.000000 }
		}
		{
			id=190
			position={ 3428.000000 0.000000 6477.000000 }
			rotation={ 0.000000 0.998068 0.000000 -0.062138 }
			scale={ 1.000000 1.000000 1.000000 }
		}
		{
			id=191
			position={ 1904.000000 0.000000 6890.000000 }
			rotation={ -0.000000 -0.000025 -0.000000 1.000000 }
			scale={ 1.000000 1.000000 1.000000 }
		}
		{
			id=192
			position={ 3452.000000 0.000000 6496.000000 }
			rotation={ 0.000000 0.998068 0.000000 -0.062138 }
			scale={ 1.000000 1.000000 1.000000 }
		}
		{
			id=193
			position={ 3466.000000 0.000000 6501.000000 }
			rotation={ 0.000000 0.994029 0.000000 0.109117 }
			scale={ 1.000000 1.000000 1.000000 }
		}
		{
			id=194
			position={ 3408.000000 0.000000 6499.000000 }
			rotation={ 0.000000 0.707107 0.000000 0.707107 }
			scale={ 1.000000 1.000000 1.000000 }
		}
		{
			id=195
			position={ 3419.000000 0.000000 6516.000000 }
			rotation={ 0.000000 0.992508 0.000000 -0.122183 }
			scale={ 1.000000 1.000000 1.000000 }
		}
		{
			id=196
			position={ 3184.000000 0.000000 6753.000000 }
			rotation={ -0.000000 -0.666921 -0.000000 0.745128 }
			scale={ 1.000000 1.000000 1.000000 }
		}
		{
			id=197
			position={ 3177.000000 0.000000 6733.000000 }
			rotation={ 0.000000 0.850651 0.000000 0.525731 }
			scale={ 1.000000 1.000000 1.000000 }
		}
		{
			id=198
			position={ 3177.000000 0.000000 6703.000000 }
			rotation={ 0.000000 0.749678 0.000000 0.661803 }
			scale={ 1.000000 1.000000 1.000000 }
		}
		{
			id=199
			position={ 3176.000000 0.000000 6687.000000 }
			rotation={ 0.000000 0.615412 0.000000 0.788205 }
			scale={ 1.000000 1.000000 1.000000 }
		}
		{
			id=200
			position={ 3179.000000 0.000000 6656.000000 }
			rotation={ 0.000000 0.615412 0.000000 0.788205 }
			scale={ 1.000000 1.000000 1.000000 }
		}
		{
			id=201
			position={ 3174.000000 0.000000 6632.000000 }
			rotation={ 0.000000 0.749678 0.000000 0.661803 }
			scale={ 1.000000 1.000000 1.000000 }
		}
		{
			id=202
			position={ 3167.000000 0.000000 6611.000000 }
			rotation={ 0.000000 0.788205 0.000000 0.615412 }
			scale={ 1.000000 1.000000 1.000000 }
		}
		{
			id=203
			position={ 3182.000000 0.000000 6602.000000 }
			rotation={ 0.000000 0.749678 0.000000 0.661803 }
			scale={ 1.000000 1.000000 1.000000 }
		}
		{
			id=204
			position={ 3833.000000 0.000000 5349.000000 }
			rotation={ -0.000000 -0.000025 -0.000000 1.000000 }
			scale={ 1.000000 1.000000 1.000000 }
		}
		{
			id=205
			position={ 3185.000000 0.000000 6580.000000 }
			rotation={ 0.000000 0.973249 0.000000 0.229753 }
			scale={ 1.000000 1.000000 1.000000 }
		}
		{
			id=206
			position={ 3200.000000 0.000000 6754.000000 }
			rotation={ 0.000000 0.788205 0.000000 0.615412 }
			scale={ 1.000000 1.000000 1.000000 }
		}
		{
			id=207
			position={ 3226.000000 0.000000 6745.000000 }
			rotation={ 0.000000 0.864910 0.000000 0.501927 }
			scale={ 1.000000 1.000000 1.000000 }
		}
		{
			id=208
			position={ 2125.000000 0.000000 4672.000000 }
			rotation={ -0.000000 -0.000025 -0.000000 1.000000 }
			scale={ 1.000000 1.000000 1.000000 }
		}
		{
			id=209
			position={ 3738.000000 0.000000 710.000000 }
			rotation={ -0.000000 -0.000025 -0.000000 1.000000 }
			scale={ 1.000000 1.000000 1.000000 }
		}
		{
			id=210
			position={ 3243.000000 0.000000 6723.000000 }
			rotation={ 0.000000 0.998470 0.000000 -0.055300 }
			scale={ 1.000000 1.000000 1.000000 }
		}
		{
			id=211
			position={ 3219.000000 0.000000 6714.000000 }
			rotation={ 0.000000 0.998068 0.000000 0.062137 }
			scale={ 1.000000 1.000000 1.000000 }
		}
		{
			id=212
			position={ 3210.000000 0.000000 6708.000000 }
			rotation={ -0.000000 -0.661803 -0.000000 0.749678 }
			scale={ 1.000000 1.000000 1.000000 }
		}
		{
			id=213
			position={ 3239.000000 0.000000 6705.000000 }
			rotation={ 0.000000 0.745128 0.000000 -0.666921 }
			scale={ 1.000000 1.000000 1.000000 }
		}
		{
			id=214
			position={ 3262.000000 0.000000 6696.000000 }
			rotation={ -0.000000 -0.661803 -0.000000 0.749678 }
			scale={ 1.000000 1.000000 1.000000 }
		}
		{
			id=215
			position={ 3687.000000 0.000000 2319.000000 }
			rotation={ -0.000000 -0.000025 -0.000000 1.000000 }
			scale={ 1.000000 1.000000 1.000000 }
		}
		{
			id=216
			position={ 3217.000000 0.000000 6687.000000 }
			rotation={ 0.000000 0.788205 0.000000 -0.615412 }
			scale={ 1.000000 1.000000 1.000000 }
		}
		{
			id=217
			position={ 3227.000000 0.000000 6673.000000 }
			rotation={ 0.000000 0.992508 0.000000 0.122183 }
			scale={ 1.000000 1.000000 1.000000 }
		}
		{
			id=218
			position={ 3266.000000 0.000000 6663.000000 }
			rotation={ 0.000000 0.998470 0.000000 -0.055300 }
			scale={ 1.000000 1.000000 1.000000 }
		}
		{
			id=219
			position={ 3284.000000 0.000000 6651.000000 }
			rotation={ 0.000000 0.966500 0.000000 -0.256668 }
			scale={ 1.000000 1.000000 1.000000 }
		}
		{
			id=220
			position={ 3273.000000 0.000000 6694.000000 }
			rotation={ 0.000000 0.788205 0.000000 0.615412 }
			scale={ 1.000000 1.000000 1.000000 }
		}
		{
			id=221
			position={ 2495.000000 0.000000 3549.000000 }
			rotation={ -0.000000 -0.000025 -0.000000 1.000000 }
			scale={ 1.000000 1.000000 1.000000 }
		}
		{
			id=222
			position={ 2479.000000 0.000000 1897.000000 }
			rotation={ -0.000000 -0.000025 -0.000000 1.000000 }
			scale={ 1.000000 1.000000 1.000000 }
		}
		{
			id=223
			position={ 3221.000000 0.000000 6655.000000 }
			rotation={ 0.000000 0.749678 0.000000 -0.661803 }
			scale={ 1.000000 1.000000 1.000000 }
		}
		{
			id=224
			position={ 3236.000000 0.000000 6640.000000 }
			rotation={ 0.000000 0.973249 0.000000 0.229753 }
			scale={ 1.000000 1.000000 1.000000 }
		}
		{
			id=225
			position={ 3249.000000 0.000000 6638.000000 }
			rotation={ 0.000000 0.973249 0.000000 0.229753 }
			scale={ 1.000000 1.000000 1.000000 }
		}
		{
			id=226
			position={ 3300.940186 0.000000 6610.401367 }
			rotation={ 0.000000 0.864910 0.000000 -0.501927 }
			scale={ 1.000000 1.000000 1.000000 }
		}
		{
			id=227
			position={ 3973.000000 0.000000 2474.000000 }
			rotation={ -0.000000 -0.000025 -0.000000 1.000000 }
			scale={ 1.000000 1.000000 1.000000 }
		}
		{
			id=228
			position={ 3273.000000 0.000000 6639.000000 }
			rotation={ 0.000000 0.889168 0.000000 0.457582 }
			scale={ 1.000000 1.000000 1.000000 }
		}
		{
			id=229
			position={ 3207.000000 0.000000 6627.000000 }
			rotation={ 0.000000 0.952295 0.000000 -0.305177 }
			scale={ 1.000000 1.000000 1.000000 }
		}
		{
			id=230
			position={ 3227.000000 0.000000 6619.000000 }
			rotation={ 0.000000 0.864910 0.000000 0.501927 }
			scale={ 1.000000 1.000000 1.000000 }
		}
		{
			id=231
			position={ 3273.000000 0.000000 6619.000000 }
			rotation={ 0.000000 0.966500 0.000000 -0.256668 }
			scale={ 1.000000 1.000000 1.000000 }
		}
		{
			id=232
			position={ 3209.000000 0.000000 6599.000000 }
			rotation={ 0.000000 0.615412 0.000000 0.788205 }
			scale={ 1.000000 1.000000 1.000000 }
		}
		{
			id=233
			position={ 3228.000000 0.000000 6588.000000 }
			rotation={ 0.000000 0.952296 0.000000 0.305177 }
			scale={ 1.000000 1.000000 1.000000 }
		}
		{
			id=234
			position={ 3200.000000 0.000000 6584.000000 }
			rotation={ 0.000000 0.661803 0.000000 0.749678 }
			scale={ 1.000000 1.000000 1.000000 }
		}
		{
			id=235
			position={ 3220.000000 0.000000 6571.000000 }
			rotation={ 0.000000 0.707107 0.000000 -0.707107 }
			scale={ 1.000000 1.000000 1.000000 }
		}
		{
			id=236
			position={ 3254.000000 0.000000 6741.000000 }
			rotation={ 0.000000 0.625727 0.000000 0.780042 }
			scale={ 1.000000 1.000000 1.000000 }
		}
		{
			id=237
			position={ 3260.000000 0.000000 6719.000000 }
			rotation={ 0.000000 0.661803 0.000000 0.749678 }
			scale={ 1.000000 1.000000 1.000000 }
		}
		{
			id=238
			position={ 3271.000000 0.000000 6731.000000 }
			rotation={ 0.000000 0.780042 0.000000 0.625727 }
			scale={ 1.000000 1.000000 1.000000 }
		}
		{
			id=239
			position={ 3305.000000 0.000000 6716.000000 }
			rotation={ 0.000000 0.987087 0.000000 0.160182 }
			scale={ 1.000000 1.000000 1.000000 }
		}
		{
			id=240
			position={ 3692.000000 0.000000 2760.000000 }
			rotation={ -0.000000 -0.000025 -0.000000 1.000000 }
			scale={ 1.000000 1.000000 1.000000 }
		}
		{
			id=241
			position={ 3290.000000 0.000000 6704.000000 }
			rotation={ 0.000000 0.615412 0.000000 0.788205 }
			scale={ 1.000000 1.000000 1.000000 }
		}
		{
			id=242
			position={ 3317.000000 0.000000 6706.000000 }
			rotation={ 0.000000 0.745128 0.000000 -0.666921 }
			scale={ 1.000000 1.000000 1.000000 }
		}
		{
			id=243
			position={ 3334.000000 0.000000 6696.000000 }
			rotation={ 0.000000 0.707107 0.000000 -0.707107 }
			scale={ 1.000000 1.000000 1.000000 }
		}
		{
			id=244
			position={ 3364.000000 0.000000 6718.000000 }
			rotation={ -0.000000 -0.615412 -0.000000 0.788205 }
			scale={ 1.000000 1.000000 1.000000 }
		}
		{
			id=245
			position={ 3363.000000 0.000000 6694.000000 }
			rotation={ 0.000000 0.874642 0.000000 0.484769 }
			scale={ 1.000000 1.000000 1.000000 }
		}
		{
			id=246
			position={ 3301.000000 0.000000 6678.000000 }
			rotation={ 0.000000 0.973249 0.000000 0.229753 }
			scale={ 1.000000 1.000000 1.000000 }
		}
		{
			id=247
			position={ 3308.000000 0.000000 6673.000000 }
			rotation={ 0.000000 0.923880 0.000000 0.382683 }
			scale={ 1.000000 1.000000 1.000000 }
		}
		{
			id=248
			position={ 988.000000 0.000000 8070.000000 }
			rotation={ -0.000000 -0.000025 -0.000000 1.000000 }
			scale={ 1.000000 1.000000 1.000000 }
		}
		{
			id=249
			position={ 3324.000000 0.000000 6672.000000 }
			rotation={ 0.000000 0.992508 0.000000 0.122183 }
			scale={ 1.000000 1.000000 1.000000 }
		}
		{
			id=250
			position={ 3346.000000 0.000000 6675.000000 }
			rotation={ 0.000000 0.983954 0.000000 0.178425 }
			scale={ 1.000000 1.000000 1.000000 }
		}
		{
			id=251
			position={ 3385.000000 0.000000 6678.000000 }
			rotation={ 0.000000 0.821926 0.000000 -0.569595 }
			scale={ 1.000000 1.000000 1.000000 }
		}
		{
			id=252
			position={ 3311.000000 0.000000 6646.000000 }
			rotation={ 0.000000 0.923880 0.000000 -0.382684 }
			scale={ 1.000000 1.000000 1.000000 }
		}
		{
			id=253
			position={ 3317.000000 0.000000 6650.000000 }
			rotation={ 0.000000 0.992508 0.000000 -0.122183 }
			scale={ 1.000000 1.000000 1.000000 }
		}
		{
			id=254
			position={ 3328.000000 0.000000 6664.000000 }
			rotation={ 0.000000 0.749678 0.000000 0.661803 }
			scale={ 1.000000 1.000000 1.000000 }
		}
		{
			id=255
			position={ 3373.000000 0.000000 6658.000000 }
			rotation={ 0.000000 0.788205 0.000000 -0.615412 }
			scale={ 1.000000 1.000000 1.000000 }
		}
		{
			id=256
			position={ 3394.000000 0.000000 6664.000000 }
			rotation={ -0.000000 -0.000025 -0.000000 1.000000 }
			scale={ 1.000000 1.000000 1.000000 }
		}
		{
			id=257
			position={ 3304.191406 0.000000 6623.749023 }
			rotation={ -0.000000 -0.000000 -0.000000 1.000000 }
			scale={ 1.000000 1.000000 1.000000 }
		}
		{
			id=258
			position={ 3389.000000 0.000000 6608.000000 }
			rotation={ -0.000000 -0.661803 -0.000000 0.749678 }
			scale={ 1.000000 1.000000 1.000000 }
		}
		{
			id=259
			position={ 3316.000000 0.000000 6614.000000 }
			rotation={ 0.000000 0.992508 0.000000 0.122183 }
			scale={ 1.000000 1.000000 1.000000 }
		}
		{
			id=260
			position={ 3349.000000 0.000000 6638.000000 }
			rotation={ 0.000000 0.749678 0.000000 -0.661803 }
			scale={ 1.000000 1.000000 1.000000 }
		}
		{
			id=261
			position={ 3372.000000 0.000000 6620.000000 }
			rotation={ 0.000000 0.745128 0.000000 -0.666921 }
			scale={ 1.000000 1.000000 1.000000 }
		}
		{
			id=262
			position={ 3387.000000 0.000000 6621.000000 }
			rotation={ 0.000000 0.998068 0.000000 -0.062138 }
			scale={ 1.000000 1.000000 1.000000 }
		}
		{
			id=263
			position={ 3404.000000 0.000000 6621.000000 }
			rotation={ 0.000000 0.983954 0.000000 -0.178425 }
			scale={ 1.000000 1.000000 1.000000 }
		}
		{
			id=264
			position={ 3400.000000 0.000000 6646.000000 }
			rotation={ 0.000000 0.788205 0.000000 0.615412 }
			scale={ 1.000000 1.000000 1.000000 }
		}
		{
			id=265
			position={ 3440.000000 0.000000 6651.000000 }
			rotation={ 0.000000 0.788205 0.000000 -0.615412 }
			scale={ 1.000000 1.000000 1.000000 }
		}
		{
			id=266
			position={ 3450.000000 0.000000 6655.000000 }
			rotation={ 0.000000 0.952295 0.000000 -0.305177 }
			scale={ 1.000000 1.000000 1.000000 }
		}
		{
			id=267
			position={ 3424.000000 0.000000 6629.000000 }
			rotation={ 0.000000 0.821926 0.000000 0.569595 }
			scale={ 1.000000 1.000000 1.000000 }
		}
		{
			id=268
			position={ 3460.000000 0.000000 6629.000000 }
			rotation={ 0.000000 0.749678 0.000000 0.661803 }
			scale={ 1.000000 1.000000 1.000000 }
		}
		{
			id=269
			position={ 3493.000000 0.000000 6630.000000 }
			rotation={ 0.000000 0.923880 0.000000 -0.382684 }
			scale={ 1.000000 1.000000 1.000000 }
		}
		{
			id=270
			position={ 3502.000000 0.000000 6628.000000 }
			rotation={ 0.000000 0.749678 0.000000 0.661803 }
			scale={ 1.000000 1.000000 1.000000 }
		}
		{
			id=271
			position={ 3409.000000 0.000000 6595.000000 }
			rotation={ 0.000000 0.615412 0.000000 0.788205 }
			scale={ 1.000000 1.000000 1.000000 }
		}
		{
			id=272
			position={ 3433.000000 0.000000 6593.000000 }
			rotation={ 0.000000 0.937885 0.000000 -0.346946 }
			scale={ 1.000000 1.000000 1.000000 }
		}
		{
			id=273
			position={ 3472.000000 0.000000 6592.000000 }
			rotation={ 0.000000 0.937885 0.000000 -0.346946 }
			scale={ 1.000000 1.000000 1.000000 }
		}
		{
			id=274
			position={ 3481.000000 0.000000 6610.000000 }
			rotation={ 0.000000 0.749678 0.000000 0.661803 }
			scale={ 1.000000 1.000000 1.000000 }
		}
		{
			id=275
			position={ 3390.000000 0.000000 6578.000000 }
			rotation={ 0.000000 0.889168 0.000000 -0.457582 }
			scale={ 1.000000 1.000000 1.000000 }
		}
		{
			id=276
			position={ 3413.000000 0.000000 6570.000000 }
			rotation={ 0.000000 0.850651 0.000000 0.525731 }
			scale={ 1.000000 1.000000 1.000000 }
		}
		{
			id=277
			position={ 3447.000000 0.000000 6581.000000 }
			rotation={ 0.000000 0.889168 0.000000 -0.457582 }
			scale={ 1.000000 1.000000 1.000000 }
		}
		{
			id=278
			position={ 3459.000000 0.000000 6574.000000 }
			rotation={ 0.000000 0.749678 0.000000 0.661803 }
			scale={ 1.000000 1.000000 1.000000 }
		}
		{
			id=279
			position={ 3402.000000 0.000000 6552.000000 }
			rotation={ 0.000000 0.666921 0.000000 0.745128 }
			scale={ 1.000000 1.000000 1.000000 }
		}
		{
			id=280
			position={ 3430.000000 0.000000 6549.000000 }
			rotation={ 0.000000 0.998470 0.000000 0.055300 }
			scale={ 1.000000 1.000000 1.000000 }
		}
		{
			id=281
			position={ 3439.000000 0.000000 6530.000000 }
			rotation={ 0.000000 0.889168 0.000000 -0.457582 }
			scale={ 1.000000 1.000000 1.000000 }
		}
		{
			id=282
			position={ 3460.000000 0.000000 6529.000000 }
			rotation={ 0.000000 0.961249 0.000000 -0.275683 }
			scale={ 1.000000 1.000000 1.000000 }
		}
		{
			id=283
			position={ 3483.000000 0.000000 6519.000000 }
			rotation={ 0.000000 0.992508 0.000000 0.122183 }
			scale={ 1.000000 1.000000 1.000000 }
		}
		{
			id=284
			position={ 3462.000000 0.000000 6550.000000 }
			rotation={ 0.000000 0.908513 0.000000 -0.417857 }
			scale={ 1.000000 1.000000 1.000000 }
		}
		{
			id=285
			position={ 3513.000000 0.000000 6607.000000 }
			rotation={ 0.000000 0.966500 0.000000 0.256668 }
			scale={ 1.000000 1.000000 1.000000 }
		}
		{
			id=286
			position={ 3536.000000 0.000000 6592.000000 }
			rotation={ 0.000000 0.864910 0.000000 -0.501927 }
			scale={ 1.000000 1.000000 1.000000 }
		}
		{
			id=287
			position={ 3569.000000 0.000000 6574.000000 }
			rotation={ 0.000000 0.923880 0.000000 -0.382684 }
			scale={ 1.000000 1.000000 1.000000 }
		}
		{
			id=288
			position={ 3538.000000 0.000000 6568.000000 }
			rotation={ 0.000000 0.661803 0.000000 0.749678 }
			scale={ 1.000000 1.000000 1.000000 }
		}
		{
			id=289
			position={ 3535.000000 0.000000 6556.000000 }
			rotation={ -0.000000 -0.661803 -0.000000 0.749678 }
			scale={ 1.000000 1.000000 1.000000 }
		}
		{
			id=290
			position={ 3511.000000 0.000000 6564.000000 }
			rotation={ 0.000000 0.864910 0.000000 -0.501927 }
			scale={ 1.000000 1.000000 1.000000 }
		}
		{
			id=291
			position={ 3494.000000 0.000000 6560.000000 }
			rotation={ 0.000000 0.821926 0.000000 -0.569595 }
			scale={ 1.000000 1.000000 1.000000 }
		}
		{
			id=292
			position={ 3482.000000 0.000000 6578.000000 }
			rotation={ 0.000000 0.788205 0.000000 0.615412 }
			scale={ 1.000000 1.000000 1.000000 }
		}
		{
			id=293
			position={ 3509.000000 0.000000 6550.000000 }
			rotation={ 0.000000 0.707107 0.000000 -0.707107 }
			scale={ 1.000000 1.000000 1.000000 }
		}
		{
			id=294
			position={ 3507.000000 0.000000 6534.000000 }
			rotation={ 0.000000 0.923880 0.000000 0.382683 }
			scale={ 1.000000 1.000000 1.000000 }
		}
		{
			id=295
			position={ 3562.000000 0.000000 6552.000000 }
			rotation={ 0.000000 0.923880 0.000000 -0.382684 }
			scale={ 1.000000 1.000000 1.000000 }
		}
		{
			id=296
			position={ 3529.000000 0.000000 6527.000000 }
			rotation={ 0.000000 0.998470 0.000000 0.055300 }
			scale={ 1.000000 1.000000 1.000000 }
		}
		{
			id=297
			position={ 3589.000000 0.000000 6574.000000 }
			rotation={ 0.000000 0.864910 0.000000 -0.501927 }
			scale={ 1.000000 1.000000 1.000000 }
		}
		{
			id=298
			position={ 3575.000000 0.000000 6547.000000 }
			rotation={ 0.000000 0.998068 0.000000 0.062137 }
			scale={ 1.000000 1.000000 1.000000 }
		}
		{
			id=299
			position={ 3607.000000 0.000000 6555.000000 }
			rotation={ -0.000000 -0.615412 -0.000000 0.788205 }
			scale={ 1.000000 1.000000 1.000000 }
		}
		{
			id=300
			position={ 3589.000000 0.000000 6530.000000 }
			rotation={ -0.000000 -0.661803 -0.000000 0.749678 }
			scale={ 1.000000 1.000000 1.000000 }
		}
		{
			id=301
			position={ 3607.000000 0.000000 6526.000000 }
			rotation={ 0.000000 0.889168 0.000000 0.457582 }
			scale={ 1.000000 1.000000 1.000000 }
		}
		{
			id=302
			position={ 3634.000000 0.000000 6536.000000 }
			rotation={ -0.000000 -0.625727 -0.000000 0.780042 }
			scale={ 1.000000 1.000000 1.000000 }
		}
		{
			id=303
			position={ 3491.000000 0.000000 6501.000000 }
			rotation={ 0.000000 0.998068 0.000000 -0.062138 }
			scale={ 1.000000 1.000000 1.000000 }
		}
		{
			id=304
			position={ 3491.000000 0.000000 6486.000000 }
			rotation={ 0.000000 0.998068 0.000000 0.062137 }
			scale={ 1.000000 1.000000 1.000000 }
		}
		{
			id=305
			position={ 3471.000000 0.000000 6492.000000 }
			rotation={ 0.000000 0.864910 0.000000 0.501927 }
			scale={ 1.000000 1.000000 1.000000 }
		}
		{
			id=306
			position={ 3465.000000 0.000000 6480.000000 }
			rotation={ -0.000000 -0.625727 -0.000000 0.780042 }
			scale={ 1.000000 1.000000 1.000000 }
		}
		{
			id=307
			position={ 3472.000000 0.000000 6464.000000 }
			rotation={ 0.000000 0.788205 0.000000 -0.615412 }
			scale={ 1.000000 1.000000 1.000000 }
		}
		{
			id=308
			position={ 3464.000000 0.000000 6453.000000 }
			rotation={ 0.000000 0.745128 0.000000 0.666921 }
			scale={ 1.000000 1.000000 1.000000 }
		}
		{
			id=309
			position={ 3474.000000 0.000000 6437.000000 }
			rotation={ -0.000000 -0.666921 -0.000000 0.745128 }
			scale={ 1.000000 1.000000 1.000000 }
		}
		{
			id=310
			position={ 5728.000000 0.000000 742.000000 }
			rotation={ -0.000000 -0.000025 -0.000000 1.000000 }
			scale={ 1.000000 1.000000 1.000000 }
		}
		{
			id=311
			position={ 784.000000 0.000000 8658.000000 }
			rotation={ -0.000000 -0.000025 -0.000000 1.000000 }
			scale={ 1.000000 1.000000 1.000000 }
		}
		{
			id=312
			position={ 3488.000000 0.000000 6421.000000 }
			rotation={ 0.000000 0.966500 0.000000 0.256668 }
			scale={ 1.000000 1.000000 1.000000 }
		}
		{
			id=313
			position={ 3504.000000 0.000000 6420.000000 }
			rotation={ 0.000000 0.889168 0.000000 0.457582 }
			scale={ 1.000000 1.000000 1.000000 }
		}
		{
			id=314
			position={ 3497.000000 0.000000 6452.000000 }
			rotation={ 0.000000 0.998470 0.000000 -0.055300 }
			scale={ 1.000000 1.000000 1.000000 }
		}
		{
			id=315
			position={ 1031.000000 0.000000 8067.000000 }
			rotation={ -0.000000 -0.000025 -0.000000 1.000000 }
			scale={ 1.000000 1.000000 1.000000 }
		}
		{
			id=316
			position={ 3500.000000 0.000000 6485.000000 }
			rotation={ 0.000000 0.615412 0.000000 0.788205 }
			scale={ 1.000000 1.000000 1.000000 }
		}
		{
			id=317
			position={ 3516.000000 0.000000 6471.000000 }
			rotation={ 0.000000 0.749678 0.000000 0.661803 }
			scale={ 1.000000 1.000000 1.000000 }
		}
		{
			id=318
			position={ 3523.000000 0.000000 6416.000000 }
			rotation={ 0.000000 0.998068 0.000000 0.062137 }
			scale={ 1.000000 1.000000 1.000000 }
		}
		{
			id=319
			position={ 3532.000000 0.000000 6461.000000 }
			rotation={ 0.000000 0.615412 0.000000 0.788205 }
			scale={ 1.000000 1.000000 1.000000 }
		}
		{
			id=320
			position={ 3515.000000 0.000000 6498.000000 }
			rotation={ 0.000000 0.788205 0.000000 0.615412 }
			scale={ 1.000000 1.000000 1.000000 }
		}
		{
			id=321
			position={ 3543.000000 0.000000 6516.000000 }
			rotation={ 0.000000 0.889168 0.000000 -0.457582 }
			scale={ 1.000000 1.000000 1.000000 }
		}
		{
			id=322
			position={ 3549.000000 0.000000 6462.000000 }
			rotation={ 0.000000 0.749678 0.000000 0.661803 }
			scale={ 1.000000 1.000000 1.000000 }
		}
		{
			id=323
			position={ 3516.000000 0.000000 6410.000000 }
			rotation={ -0.000000 -0.661803 -0.000000 0.749678 }
			scale={ 1.000000 1.000000 1.000000 }
		}
		{
			id=324
			position={ 3527.000000 0.000000 6407.000000 }
			rotation={ 0.000000 0.615412 0.000000 0.788205 }
			scale={ 1.000000 1.000000 1.000000 }
		}
		{
			id=325
			position={ 3544.000000 0.000000 6385.000000 }
			rotation={ 0.000000 0.889168 0.000000 0.457582 }
			scale={ 1.000000 1.000000 1.000000 }
		}
		{
			id=326
			position={ 3554.000000 0.000000 6409.000000 }
			rotation={ 0.000000 0.615412 0.000000 0.788205 }
			scale={ 1.000000 1.000000 1.000000 }
		}
		{
			id=327
			position={ 3591.000000 0.000000 6392.000000 }
			rotation={ -0.000000 -0.666921 -0.000000 0.745128 }
			scale={ 1.000000 1.000000 1.000000 }
		}
		{
			id=328
			position={ 3566.000000 0.000000 6425.000000 }
			rotation={ 0.000000 0.749678 0.000000 -0.661803 }
			scale={ 1.000000 1.000000 1.000000 }
		}
		{
			id=329
			position={ 3559.000000 0.000000 6477.000000 }
			rotation={ 0.000000 0.615412 0.000000 0.788205 }
			scale={ 1.000000 1.000000 1.000000 }
		}
		{
			id=330
			position={ 3556.000000 0.000000 6492.000000 }
			rotation={ 0.000000 0.983954 0.000000 0.178425 }
			scale={ 1.000000 1.000000 1.000000 }
		}
		{
			id=331
			position={ 3581.000000 0.000000 6503.000000 }
			rotation={ 0.000000 0.850651 0.000000 -0.525731 }
			scale={ 1.000000 1.000000 1.000000 }
		}
		{
			id=332
			position={ 3582.000000 0.000000 6484.000000 }
			rotation={ 0.000000 0.788205 0.000000 0.615412 }
			scale={ 1.000000 1.000000 1.000000 }
		}
		{
			id=333
			position={ 3583.000000 0.000000 6457.000000 }
			rotation={ -0.000000 -0.661803 -0.000000 0.749678 }
			scale={ 1.000000 1.000000 1.000000 }
		}
		{
			id=334
			position={ 3589.000000 0.000000 6444.000000 }
			rotation={ 0.000000 0.707107 0.000000 -0.707107 }
			scale={ 1.000000 1.000000 1.000000 }
		}
		{
			id=335
			position={ 3598.000000 0.000000 6392.000000 }
			rotation={ 0.000000 0.966500 0.000000 0.256668 }
			scale={ 1.000000 1.000000 1.000000 }
		}
		{
			id=336
			position={ 3596.000000 0.000000 6480.000000 }
			rotation={ 0.000000 0.745128 0.000000 0.666921 }
			scale={ 1.000000 1.000000 1.000000 }
		}
		{
			id=337
			position={ 3615.000000 0.000000 6503.000000 }
			rotation={ 0.000000 0.707107 0.000000 0.707107 }
			scale={ 1.000000 1.000000 1.000000 }
		}
		{
			id=338
			position={ 3509.000000 0.000000 6450.000000 }
			rotation={ 0.000000 0.745128 0.000000 0.666921 }
			scale={ 1.000000 1.000000 1.000000 }
		}
		{
			id=339
			position={ 4452.000000 0.000000 3528.000000 }
			rotation={ -0.000000 -0.000025 -0.000000 1.000000 }
			scale={ 1.000000 1.000000 1.000000 }
		}
		{
			id=340
			position={ 4497.000000 0.000000 1920.000000 }
			rotation={ -0.000000 -0.000025 -0.000000 1.000000 }
			scale={ 1.000000 1.000000 1.000000 }
		}
		{
			id=341
			position={ 1095.000000 0.000000 8059.000000 }
			rotation={ -0.000000 -0.000025 -0.000000 1.000000 }
			scale={ 1.000000 1.000000 1.000000 }
		}
		{
			id=343
			position={ 4611.000000 0.000000 3391.000000 }
			rotation={ -0.000000 -0.000025 -0.000000 1.000000 }
			scale={ 1.000000 1.000000 1.000000 }
		}
	}
}
